{
  "pingChain": [
    {
      "name": "Su Casa",
      "ping": "https://10.0.12.52",
      "error": "No se puede connectar al antena en su casa.  Podria estar desenchufado."
    },
    {
      "name": "Offgrid Network",
      "ping": "https://10.0.12.50",
      "error": "Su antena no esta recibiendo señal inalambrico.  Podria ser obstruido o girado.  Porfavor revise el antenna en su techo y contactenos si no hay problemas visibles."
    },
    {
      "name": "Futaleufú",
      "ping": "https://10.0.9.1",
      "error": "No se puede connectar a Futaleufú.  En general eso significa que hubo un corte de luz en Futaleufú o Noroeste."
    },
    {
      "name": "Internet",
      "ping": "https://google.com",
      "error": "Nuestro red está funcionando bien, pero hay un corte en la red de Telsur."
    }
  ]
}